%YAML 1.1
%TAG !u! tag:unity3d.com,2011:
--- !u!1045 &1
EditorBuildSettings:
  m_ObjectHideFlags: 0
  serializedVersion: 2
  m_Scenes:
  - enabled: 0
    path: Assets/Scenes/Environment Setup (Mikkel).unity
    guid: 76bc1eb526df9ef489fc78817862bbba
  - enabled: 0
    path: Assets/Scenes/Older scenes/MainMenu/MainMenu(Deprecated).unity
    guid: c1023a9b0f7546242af9421273a62519
  - enabled: 1
    path: Assets/Scenes/MainMenu.unity
    guid: b50b95fd036f61a4a8299360125d494a
  - enabled: 0
    path: 
    guid: 00000000000000000000000000000000
  - enabled: 0
    path: Assets/Scenes/BackStoryScene.unity
    guid: e9e2fd1f00848cd48aaaac0ef189385e
  - enabled: 0
    path: Assets/Scenes/Test Powerdowns.unity
    guid: 9129fe3ccb405544780069c567bd4953
  - enabled: 1
    path: Assets/Scenes/WinSceneTest.unity
    guid: 12c1035bfb802f2ca88ab02d224e33ed
  - enabled: 0
    path: 
    guid: 00000000000000000000000000000000
  - enabled: 1
    path: Assets/Scenes/First Playable.unity
    guid: 085a841b8802851aea1a61cd7fa3ae37
  m_configObjects: {}
